{"failedCount":1,"prefixedPath":"src\/test\/java\/FileFeature\/Test.feature","packageQualifiedName":"src.test.java.FileFeature.Test","loopIndex":-1,"relativePath":"src\/test\/java\/FileFeature\/Test.feature","scenarioResults":[{"sectionIndex":0,"stepResults":[{"result":{"nanos":61353152,"millis":61.353152,"status":"passed"},"step":{"line":5,"prefix":"Given","index":0,"text":"url 'https:\/\/reqres.in\/api\/users?page=2'"}},{"result":{"nanos":549295142,"millis":549.295142,"status":"passed"},"step":{"line":6,"prefix":"When","index":1,"text":"method GET"},"stepLog":"13:39:51.382 request:\n1 > GET https:\/\/reqres.in\/api\/users?page=2\n1 > Host: reqres.in\n1 > Connection: Keep-Alive\n1 > User-Agent: Apache-HttpClient\/4.5.12 (Java\/11.0.10)\n1 > Accept-Encoding: gzip,deflate\n\n\n13:39:51.700 response time in milliseconds: 316\n1 < 200\n1 < Date: Sun, 17 Apr 2022 06:39:51 GMT\n1 < Content-Type: application\/json; charset=utf-8\n1 < Transfer-Encoding: chunked\n1 < Connection: keep-alive\n1 < X-Powered-By: Express\n1 < Access-Control-Allow-Origin: *\n1 < Etag: W\/\"406-ut0vzoCuidvyMf8arZpMpJ6ZRDw\"\n1 < Via: 1.1 vegur\n1 < Cache-Control: max-age=14400\n1 < CF-Cache-Status: HIT\n1 < Age: 6923\n1 < Expect-CT: max-age=604800, report-uri=\"https:\/\/report-uri.cloudflare.com\/cdn-cgi\/beacon\/expect-ct\"\n1 < Report-To: {\"endpoints\":[{\"url\":\"https:\\\/\\\/a.nel.cloudflare.com\\\/report\\\/v3?s=0MuBmeV1zDtc7809FZU4u9RaMXW842OyrCfFMOH8odOq6%2Bj3EiyveW%2B1HM9JYowFWazmbsoATtkxdozQj7FudAD1qxBdj0i2tonWkIS2M84%2BQ0ib0VDRK4rui6M%3D\"}],\"group\":\"cf-nel\",\"max_age\":604800}\n1 < NEL: {\"success_fraction\":0,\"report_to\":\"cf-nel\",\"max_age\":604800}\n1 < Vary: Accept-Encoding\n1 < Server: cloudflare\n1 < CF-RAY: 6fd32a7d1d68472d-SIN\n1 < alt-svc: h3=\":443\"; ma=86400, h3-29=\":443\"; ma=86400\n{\"page\":2,\"per_page\":6,\"total\":12,\"total_pages\":2,\"data\":[{\"id\":7,\"email\":\"michael.lawson@reqres.in\",\"first_name\":\"Michael\",\"last_name\":\"Lawson\",\"avatar\":\"https:\/\/reqres.in\/img\/faces\/7-image.jpg\"},{\"id\":8,\"email\":\"lindsay.ferguson@reqres.in\",\"first_name\":\"Lindsay\",\"last_name\":\"Ferguson\",\"avatar\":\"https:\/\/reqres.in\/img\/faces\/8-image.jpg\"},{\"id\":9,\"email\":\"tobias.funke@reqres.in\",\"first_name\":\"Tobias\",\"last_name\":\"Funke\",\"avatar\":\"https:\/\/reqres.in\/img\/faces\/9-image.jpg\"},{\"id\":10,\"email\":\"byron.fields@reqres.in\",\"first_name\":\"Byron\",\"last_name\":\"Fields\",\"avatar\":\"https:\/\/reqres.in\/img\/faces\/10-image.jpg\"},{\"id\":11,\"email\":\"george.edwards@reqres.in\",\"first_name\":\"George\",\"last_name\":\"Edwards\",\"avatar\":\"https:\/\/reqres.in\/img\/faces\/11-image.jpg\"},{\"id\":12,\"email\":\"rachel.howell@reqres.in\",\"first_name\":\"Rachel\",\"last_name\":\"Howell\",\"avatar\":\"https:\/\/reqres.in\/img\/faces\/12-image.jpg\"}],\"support\":{\"url\":\"https:\/\/reqres.in\/#support-heading\",\"text\":\"To keep ReqRes free, contributions towards server costs are appreciated!\"}}\n\n"},{"result":{"nanos":22328,"millis":0.022328,"status":"passed"},"step":{"line":7,"prefix":"Then","index":2,"text":"status 200"}},{"result":{"nanos":55123783,"millis":55.123783,"status":"passed"},"step":{"line":8,"prefix":"And","index":3,"text":"print response"},"stepLog":"13:39:51.777 [print] {\n  \"page\": 2,\n  \"per_page\": 6,\n  \"total\": 12,\n  \"total_pages\": 2,\n  \"data\": [\n    {\n      \"id\": 7,\n      \"email\": \"michael.lawson@reqres.in\",\n      \"first_name\": \"Michael\",\n      \"last_name\": \"Lawson\",\n      \"avatar\": \"https:\/\/reqres.in\/img\/faces\/7-image.jpg\"\n    },\n    {\n      \"id\": 8,\n      \"email\": \"lindsay.ferguson@reqres.in\",\n      \"first_name\": \"Lindsay\",\n      \"last_name\": \"Ferguson\",\n      \"avatar\": \"https:\/\/reqres.in\/img\/faces\/8-image.jpg\"\n    },\n    {\n      \"id\": 9,\n      \"email\": \"tobias.funke@reqres.in\",\n      \"first_name\": \"Tobias\",\n      \"last_name\": \"Funke\",\n      \"avatar\": \"https:\/\/reqres.in\/img\/faces\/9-image.jpg\"\n    },\n    {\n      \"id\": 10,\n      \"email\": \"byron.fields@reqres.in\",\n      \"first_name\": \"Byron\",\n      \"last_name\": \"Fields\",\n      \"avatar\": \"https:\/\/reqres.in\/img\/faces\/10-image.jpg\"\n    },\n    {\n      \"id\": 11,\n      \"email\": \"george.edwards@reqres.in\",\n      \"first_name\": \"George\",\n      \"last_name\": \"Edwards\",\n      \"avatar\": \"https:\/\/reqres.in\/img\/faces\/11-image.jpg\"\n    },\n    {\n      \"id\": 12,\n      \"email\": \"rachel.howell@reqres.in\",\n      \"first_name\": \"Rachel\",\n      \"last_name\": \"Howell\",\n      \"avatar\": \"https:\/\/reqres.in\/img\/faces\/12-image.jpg\"\n    }\n  ],\n  \"support\": {\n    \"url\": \"https:\/\/reqres.in\/#support-heading\",\n    \"text\": \"To keep ReqRes free, contributions towards server costs are appreciated!\"\n  }\n}\n \n"},{"result":{"nanos":19553396,"millis":19.553396,"status":"passed"},"step":{"line":9,"prefix":"And","index":4,"text":"def total = get response.total"}},{"result":{"nanos":1113971,"millis":1.113971,"status":"passed"},"step":{"line":10,"prefix":"And","index":5,"text":"print total"},"stepLog":"13:39:51.799 [print] 12 \n"},{"result":{"nanos":6340403,"errorMessage":"did not evaluate to 'true': total == 11\nsrc\/test\/java\/FileFeature\/Test.feature:11","millis":6.340403,"status":"failed"},"step":{"line":11,"prefix":"And","index":6,"text":"assert total == 11"},"stepLog":"13:39:51.806 src\/test\/java\/FileFeature\/Test.feature:11\nAnd assert total == 11\ndid not evaluate to 'true': total == 11\nsrc\/test\/java\/FileFeature\/Test.feature:11\n"},{"result":{"nanos":0,"millis":0.0,"status":"skipped"},"step":{"line":12,"prefix":"And","index":7,"text":"def data = get response.data"}},{"result":{"nanos":0,"millis":0.0,"status":"skipped"},"step":{"line":13,"prefix":"And","index":8,"text":"print data"}}],"line":3,"description":"","durationMillis":692.802175,"failed":true,"error":"did not evaluate to 'true': total == 11\nsrc\/test\/java\/FileFeature\/Test.feature:11","executorName":"main","name":"Testing valid GET endpoint","startTime":1650177591100,"refId":"[1:3]","endTime":1650177591806,"exampleIndex":-1}],"callDepth":0,"name":"User wants to check Google URL as GET","description":"","resultDate":"2022-04-17 01:39:51 PM","durationMillis":692.802175,"passedCount":0}